﻿Gujarat Lions bowling averages,,,,,,,,,,,,,,
Player,Mat,Inns,Overs,Mdns,Runs,Wkts,BBI,Ave,Econ,SR,4,5,Ct,St
DS Kulkarni,14,14,49,4,364,18,Apr-14,20.22,7.42,16.3,1,0,2,0
RA Jadeja,15,14,40.1,0,311,8,Feb-18,38.87,7.74,30.1,0,0,4,0
P Kumar,16,16,51.3,2,401,9,Feb-19,44.55,7.78,34.3,0,0,2,0
SK Raina,15,4,10,0,82,0,-,-,8.2,-,0,0,7,0
S Kaushik,7,7,23,0,192,6,Mar-20,32,8.34,23,0,0,0,0
DR Smith,12,8,18,0,153,8,04-Aug,19.12,8.5,13.5,1,0,7,0
DW Steyn,1,1,2,0,17,0,-,-,8.5,-,0,0,0,0
DJ Bravo,15,15,56,0,494,17,Apr-22,29.05,8.82,19.7,1,0,6,0
SB Jakati,6,6,20,0,178,2,Jan-13,89,8.9,60,0,0,4,0
PV Tambe,7,7,16,0,143,5,02-Dec,28.6,8.93,19.2,0,0,1,0
JP Faulkner,7,7,17,0,167,2,Jan-23,83.5,9.82,51,0,0,3,0
S Ladda,1,1,2,0,21,0,-,-,10.5,-,0,0,0,0
PJ Sangwan,2,2,4,0,49,0,-,-,12.25,-,0,0,1,0
AD Nath,4,-,-,-,-,-,-,-,-,-,-,-,0,0
ER Dwivedi,4,-,-,-,-,-,-,-,-,-,-,-,2,0
AJ Finch,13,-,-,-,-,-,-,-,-,-,-,-,3,0
Ishan Kishan,5,-,-,-,-,-,-,-,-,-,-,-,1,0
KD Karthik,16,-,-,-,-,-,-,-,-,-,-,-,11,3
BB McCullum,16,-,-,-,-,-,-,-,-,-,-,-,0,0
