"","Batsman","Strike_Rate","Average","Batsman_n","cluster"
"1","CH Morris",178.89,65,26,1
"2","JP Duminy",122.43,38.2,63,2
"3","Q de Kock",136.08,37.08,111,4
"4","KK Nair",120.2,35.7,71,2
"5","P Negi",96.61,28.5,103,7
"6","SV Samson",112.35,26.45,143,4
"7","RR Pant",130.26,24.75,120,4
"8","SW Billings",137.5,22,144,4
"9","CR Brathwaite",218.42,13.83,28,1
"10","MA Agarwal",108,9,84,7
"11","SS Iyer",69.76,5,140,9
"12","Imran Tahir",71.42,5,53,3
"13","Z Khan",46.15,3,159,9
"14","J Yadav",60,3,57,3
"15","A Mishra",28.57,2,2,10
"16","NM Coulter-Nile",64.28,0,99,9
"17","Mohammed Shami",50,0,92,9
"18","S Nadeem",20,0,127,8
"19","AJ Finch",131.43,39.3,10,5
"20","DR Smith",146.6,29.45,35,5
"21","SK Raina",127.88,28.5,134,4
"22","KD Karthik",125.93,25.76,68,2
"23","JP Faulkner",130.5,25.66,64,2
"24","BB McCullum",135.11,22.12,19,5
"25","RA Jadeja",107.9,21.22,117,7
"26","DS Kulkarni",168.75,13.5,36,1
"27","DJ Bravo",120.73,12.37,32,5
"28","ER Dwivedi",171.42,12,39,1
"29","Ishan Kishan",102.43,8.4,55,3
"30","AD Nath",74.07,6.66,7,3
"31","P Kumar",92.3,6,102,7
"32","DW Steyn",50,1,37,3
"33","S Kaushik",0,0,125,8
"34","PV Tambe",36.84,0,110,9
"35","SB Jakati",50,0,131,9
"36","S Ladda",0,0,126,8
"37","PJ Sangwan",0,0,107,8
"38","MP Stoinis",135.18,36.5,93,2
"39","M Vijay",124.45,34.84,82,2
"40","SE Marsh",118.65,31.8,132,4
"41","HM Amla",131.93,26.16,49,5
"42","WP Saha",127.35,24.54,155,4
"43","M Vohra",122.9,23,83,2
"44","Gurkeerat Singh",131.39,22.6,46,5
"45","GJ Maxwell",144.35,19.88,45,5
"46","P Sahu",146.15,19,104,2
"47","DA Miller",122.9,16.1,30,5
"48","AR Patel",144.15,15.85,15,5
"49","KJ Abbott",162.5,13,70,2
"50","KC Cariappa",118.18,13,67,2
"51","NS Naik",74.19,11.5,100,9
"52","MM Sharma",123.07,8,91,7
"53","F Behardien",107.69,7,40,3
"54","MG Johnson",35.71,2.5,87,9
"55","Swapnil Singh",0,0,145,8
"56","R Dhawan",233.33,0,114,6
"57","Sandeep Sharma",88.88,0,130,9
"58","Anureet Singh",0,0,13,10
"59","YK Pathan",145.56,72.2,156,4
"60","G Gambhir",121.89,38.53,42,5
"61","MK Pandey",135.51,31,90,2
"62","AD Russell",164.91,26.85,8,1
"63","RV Uthappa",136.33,26.26,121,4
"64","SA Yadav",127.27,26,128,4
"65","CA Lynn",113.63,25,24,5
"66","Shakib Al Hasan",107.54,22.8,133,4
"67","C Munro",100,10,23,3
"68","PP Chawla",103.84,9,108,7
"69","UT Yadav",180,9,152,6
"70","R Sathish",100,8,115,7
"71","SP Narine",53.84,7,137,9
"72","JO Holder",115.78,5.5,62,2
"73","M Morkel",100,0,81,7
"74","GB Hogg",0,0,43,10
"75","JW Hastings",0,0,65,10
"76","Kuldeep Yadav",0,0,76,10
"77","AS Rajpoot",0,0,16,10
"78","JD Unadkat",0,0,60,10
"79","RG Sharma",132.88,44.45,118,4
"80","KH Pandya",191.12,39.5,69,1
"81","N Rana",138.66,34.66,97,2
"82","Harbhajan Singh",109.52,30.66,47,5
"83","AT Rayudu",120.14,30.36,17,5
"84","KA Pollard",143.75,25.87,66,2
"85","JC Buttler",138.58,23.18,59,2
"86","MJ Guptill",103.63,19,88,7
"87","PA Patel",116.44,17.7,105,7
"88","R Vinay Kumar",108.33,13,116,7
"89","MJ McClenaghan",147.82,11.33,89,2
"90","TG Southee",157.89,10,148,4
"91","JJ Bumrah",72.72,8,61,3
"92","LMP Simmons",100,8,79,7
"93","HH Pandya",69.84,6.28,48,3
"94","S Gopal",12.5,2,124,8
"95","UBT Chand",0,0,150,8
"96","J Suchith",0,0,56,10
"97","SPD Smith",153.4,45,138,4
"98","AM Rahane",126.64,43.63,11,5
"99","MS Dhoni",135.23,40.57,95,2
"100","KP Pietersen",119.67,36.5,74,2
"101","F du Plessis",127.16,34.33,41,5
"102","R Bhatia",170,34,113,6
"103","SS Tiwary",120.56,24.28,141,4
"104","NLTC Perera",161.29,21.42,98,2
"105","UT Khawaja",127,21.16,151,4
"106","GJ Bailey",85.71,21,44,3
"107","R Ashwin",107.89,20.5,112,7
"108","JA Morkel",177.77,16,58,1
"109","MR Marsh",63.63,7,94,9
"110","PSP Handscomb",50,6,109,9
"111","IK Pathan",84.61,3.66,52,3
"112","M Ashwin",0,0,80,10
"113","A Zampa",0,0,4,10
"114","Ankit Sharma",100,0,12,3
"115","I Sharma",0,0,51,10
"116","SM Boland",0,0,135,8
"117","DL Chahar",0,0,34,10
"118","AB Dinda",0,0,6,10
"119","RP Singh",0,0,119,8
"120","V Kohli",152.03,81.08,153,4
"121","AB de Villiers",168.79,52.84,5,1
"122","KL Rahul",146.49,44.11,72,2
"123","SN Khan",212.9,33,136,6
"124","Sachin Baby",150.63,29.75,129,4
"125","TM Head",135,27,149,4
"126","CH Gayle",151.33,22.7,25,5
"127","STR Binny",161.53,15.75,142,4
"128","SR Watson",133.58,13.76,139,4
"129","Parvez Rasool",111.11,10,106,7
"130","CJ Jordan",75,3,27,3
"131","KM Jadhav",131.25,0,73,2
"132","Iqbal Abdulla",137.03,0,54,2
"133","D Wiese",125,0,29,5
"134","KW Richardson",100,0,78,7
"135","VR Aaron",0,0,154,8
"136","HV Patel",0,0,50,10
"137","S Aravind",0,0,122,8
"138","YS Chahal",0,0,157,8
"139","Mandeep Singh",0,0,85,8
"140","AF Milne",0,0,9,10
"141","T Shamsi",0,0,146,8
"142","DA Warner",151.42,60.57,31,5
"143","S Dhawan",116.78,38.53,123,4
"144","BCJ Cutting",191.17,32.5,21,1
"145","Yuvraj Singh",131.84,26.22,158,4
"146","Bipul Sharma",204,25.5,22,1
"147","EJG Morgan",117.14,24.6,38,5
"148","A Ashish Reddy",162.06,23.5,1,1
"149","KS Williamson",101.63,20.66,75,7
"150","MC Henriques",115.18,15.16,86,7
"151","NV Ojha",98.55,13.6,101,7
"152","DJ Hooda",119,10.28,33,5
"153","B Kumar",159.25,7.16,18,1
"154","AP Tare",53.33,4,14,3
"155","KV Sharma",120,0,77,7
"156","BB Sran",100,0,20,3
"157","A Nehra",100,0,3,3
"158","TA Boult",0,0,147,8
"159","Mustafizur Rahman",0,0,96,8
